scan 4
battery_check 20
correct_ip
1=0TQDG7BEDBJ740
2=0TQDG38EDBDW1U
3=0TQDG7KEDB306P
4=0TQDG38EDB041Y

//1=0TQDG38EDBDW1U
//2=0TQDG38EDB041Y

*>takeoff

sync 5

*>speed 80

sync 5

1>forward 50

2>back 50

3>forward 50

4>back 50

1>back 50

2>forward 50

3>back 50

4>forward 50

sync 15

delay 5

*>land